…
```r
suppressPackageStartupMessages(library(tidyverse))
suppressPackageStartupMessages(library(here))
```




```r
skimr::skim_to_list(results_2018)
```

```
## $character
## # A tibble: 44 x 8
##    variable              missing complete n     min   max   empty n_unique
##  * <chr>                 <chr>   <chr>    <chr> <chr> <chr> <chr> <chr>   
##  1 Age                   0       627      627   3     12    0     6       
##  2 Are you able to choo… 3       624      627   32    73    0     2       
##  3 Data visualization r… 144     483      627   2     193   0     126     
##  4 Did you learn how to… 0       627      627   18    34    0     3       
##  5 Did you set out to w… 1       626      627   38    61    0     2       
##  6 Do you do more or le… 1       626      627   4     41    0     3       
##  7 Do you feel the lead… 139     488      627   2     10    0     3       
##  8 Do you want to spend… 8       619      627   4     9     0     5       
##  9 Experience (Buckets)  0       627      627   3     3     0     4       
## 10 For your current rol… 3       624      627   30    41    0     2       
## # ... with 34 more rows
## 
## $numeric
…
